<svg width="18" height="18" viewBox="0 0 18 18" fill="none" xmlns="http://www.w3.org/2000/svg">
<path d="M14 7.367C14 7.52413 13.9458 7.65769 13.8374 7.76768L9.63355 12.0337L8.84387 12.835C8.73548 12.945 8.60387 13 8.44903 13C8.29419 13 8.16258 12.945 8.05419 12.835L7.26452 12.0337L5.16258 9.90067C5.05419 9.79068 5 9.65713 5 9.5C5 9.34287 5.05419 9.20932 5.16258 9.09933L5.95226 8.29798C6.06065 8.18799 6.19226 8.133 6.3471 8.133C6.50194 8.133 6.63355 8.18799 6.74194 8.29798L8.44903 10.0362L12.2581 6.16498C12.3665 6.05499 12.4981 6 12.6529 6C12.8077 6 12.9394 6.05499 13.0477 6.16498L13.8374 6.96633C13.9458 7.07632 14 7.20988 14 7.367Z" fill="#57B847"/>
<path d="M9 0C4.0275 0 0 4.0275 0 9C0 13.9725 4.0275 18 9 18C13.9725 18 18 13.968 18 9C18 4.0275 13.9725 0 9 0ZM9 16.2C5.022 16.2 1.8 12.978 1.8 9C1.8 5.022 5.022 1.8 9 1.8C12.978 1.8 16.2 5.022 16.2 9C16.2 12.978 12.978 16.2 9 16.2Z" fill="#57B847"/>
</svg>
