<svg width="38" height="38" viewBox="0 0 38 38" fill="none" xmlns="http://www.w3.org/2000/svg">
<path d="M33.25 7.91667V6.33333C33.25 5.38333 32.6166 4.75 31.6666 4.75H30.0833" stroke="url(#paint0_linear_4377_7481)" stroke-width="2.53333" stroke-linecap="round" stroke-linejoin="round"/>
<path d="M33.25 23.75V25.3333C33.25 26.2833 32.6166 26.9167 31.6666 26.9167H30.0833" stroke="url(#paint1_linear_4377_7481)" stroke-width="2.53333" stroke-linecap="round" stroke-linejoin="round"/>
<path d="M11.0833 7.91667V6.33333C11.0833 5.38333 11.7166 4.75 12.6666 4.75H14.25" stroke="url(#paint2_linear_4377_7481)" stroke-width="2.53333" stroke-linecap="round" stroke-linejoin="round"/>
<path d="M20.5833 4.75016H23.75" stroke="url(#paint3_linear_4377_7481)" stroke-width="2.53333" stroke-linecap="round" stroke-linejoin="round"/>
<path fill-rule="evenodd" clip-rule="evenodd" d="M33.25 17.4167V14.25V14.25V14.25V17.4167Z" stroke="url(#paint4_linear_4377_7481)" stroke-width="2.53333" stroke-linecap="round" stroke-linejoin="round"/>
<path fill-rule="evenodd" clip-rule="evenodd" d="M22.1667 33.2498H7.91667C6.175 33.2498 4.75 31.8248 4.75 30.0832V15.8332C4.75 14.0915 6.175 12.6665 7.91667 12.6665H22.1667C23.9083 12.6665 25.3333 14.0915 25.3333 15.8332V30.0832C25.3333 31.8248 23.9083 33.2498 22.1667 33.2498Z" stroke="url(#paint5_linear_4377_7481)" stroke-width="2.53333" stroke-linecap="round" stroke-linejoin="round"/>
<path d="M15.0417 19V26.9167" stroke="url(#paint6_linear_4377_7481)" stroke-width="2.53333" stroke-linecap="round" stroke-linejoin="round"/>
<path d="M19 22.9582H11.0833" stroke="url(#paint7_linear_4377_7481)" stroke-width="2.53333" stroke-linecap="round" stroke-linejoin="round"/>
<defs>
<linearGradient id="paint0_linear_4377_7481" x1="31.6666" y1="4.75" x2="31.6666" y2="7.69236" gradientUnits="userSpaceOnUse">
<stop offset="0.572917" stop-color="#6F3E98"/>
<stop offset="1" stop-color="#8B288C"/>
</linearGradient>
<linearGradient id="paint1_linear_4377_7481" x1="31.6666" y1="23.75" x2="31.6666" y2="26.6924" gradientUnits="userSpaceOnUse">
<stop offset="0.572917" stop-color="#6F3E98"/>
<stop offset="1" stop-color="#8B288C"/>
</linearGradient>
<linearGradient id="paint2_linear_4377_7481" x1="12.6666" y1="4.75" x2="12.6666" y2="7.69236" gradientUnits="userSpaceOnUse">
<stop offset="0.572917" stop-color="#6F3E98"/>
<stop offset="1" stop-color="#8B288C"/>
</linearGradient>
<linearGradient id="paint3_linear_4377_7481" x1="22.1666" y1="3.9585" x2="22.1666" y2="5.42968" gradientUnits="userSpaceOnUse">
<stop offset="0.572917" stop-color="#6F3E98"/>
<stop offset="1" stop-color="#8B288C"/>
</linearGradient>
<linearGradient id="paint4_linear_4377_7481" x1="33.25" y1="14.25" x2="33.25" y2="17.1924" gradientUnits="userSpaceOnUse">
<stop offset="0.572917" stop-color="#6F3E98"/>
<stop offset="1" stop-color="#8B288C"/>
</linearGradient>
<linearGradient id="paint5_linear_4377_7481" x1="15.0417" y1="12.6665" x2="15.0417" y2="31.7918" gradientUnits="userSpaceOnUse">
<stop offset="0.572917" stop-color="#6F3E98"/>
<stop offset="1" stop-color="#8B288C"/>
</linearGradient>
<linearGradient id="paint6_linear_4377_7481" x1="15.0417" y1="19" x2="15.0417" y2="26.3559" gradientUnits="userSpaceOnUse">
<stop offset="0.572917" stop-color="#6F3E98"/>
<stop offset="1" stop-color="#8B288C"/>
</linearGradient>
<linearGradient id="paint7_linear_4377_7481" x1="15.0416" y1="22.1665" x2="15.0416" y2="23.6377" gradientUnits="userSpaceOnUse">
<stop offset="0.572917" stop-color="#6F3E98"/>
<stop offset="1" stop-color="#8B288C"/>
</linearGradient>
</defs>
</svg>
