<svg width="24" height="24" viewBox="0 0 24 24" fill="none" xmlns="http://www.w3.org/2000/svg">
<path d="M12 17V11" stroke="white" stroke-width="1.5" stroke-linecap="round" stroke-linejoin="round"/>
<path d="M12 6.88477C11.93 6.88477 11.875 6.93977 11.875 7.00977C11.875 7.07977 11.93 7.13477 12 7.13477C12.07 7.13477 12.125 7.07977 12.125 7.00977C12.125 6.93977 12.07 6.88477 12 6.88477" stroke="white" stroke-width="1.5" stroke-linecap="round" stroke-linejoin="round"/>
<path d="M12 2.90039C11.93 2.90039 11.875 2.95539 11.875 3.02539C11.875 3.09539 11.93 3.15039 12 3.15039C12.07 3.15039 12.125 3.09539 12.125 3.02539C12.125 2.95539 12.07 2.90039 12 2.90039" stroke="white" stroke-width="1.5" stroke-linecap="round" stroke-linejoin="round"/>
<path d="M20 21H4" stroke="white" stroke-width="1.5" stroke-linecap="round" stroke-linejoin="round"/>
<path d="M16 13L11.999 17.001L7.999 13" stroke="white" stroke-width="1.5" stroke-linecap="round" stroke-linejoin="round"/>
</svg>
