<svg width="22" height="22" viewBox="0 0 22 22" fill="none" xmlns="http://www.w3.org/2000/svg">
<circle cx="11" cy="11" r="11" fill="#57B847"/>
<path d="M14.4365 12.003H11.7765V14.838H10.2085V12.003H7.56245V10.596H10.2085V7.768H11.7765V10.596H14.4365V12.003Z" fill="white"/>
</svg>
