<svg width="19" height="19" viewBox="0 0 19 19" fill="none" xmlns="http://www.w3.org/2000/svg">
<path d="M15.7655 16.2343L16.4219 17.5471C16.5959 17.895 16.8862 18.0945 17.2188 18.0945C17.5513 18.0945 17.8416 17.895 18.0156 17.5471L18.672 16.2343C18.859 15.86 19 15.262 19 14.8438V1.1875C19 0.532594 18.4674 0 17.8125 0H16.625C15.9701 0 15.4375 0.532594 15.4375 1.1875H14.8438C14.1888 1.1875 13.6562 1.72009 13.6562 2.375V4.75C13.6562 4.90747 13.7188 5.0585 13.8302 5.16984C13.9415 5.28119 14.0925 5.34375 14.25 5.34375C14.4075 5.34375 14.5585 5.28119 14.6698 5.16984C14.7812 5.0585 14.8438 4.90747 14.8438 4.75V2.375H15.4375V14.8438C15.4375 15.262 15.5785 15.86 15.7655 16.2343ZM16.625 1.1875H17.8125V14.8438C17.8125 15.0768 17.7139 15.4945 17.6094 15.7032L17.2188 16.4846L16.8281 15.7029C16.7236 15.4945 16.625 15.0768 16.625 14.8438V1.1875ZM1.1875 17.8125H11.875C12.5299 17.8125 13.0625 17.2799 13.0625 16.625V4.75C13.0625 4.26312 12.8128 3.66047 12.4688 3.31669L9.74581 0.593453C9.40144 0.249672 8.79878 0 8.3125 0H1.1875C0.532594 0 0 0.532594 0 1.1875V16.625C0 17.2799 0.532594 17.8125 1.1875 17.8125ZM11.0351 3.5625H9.5V2.02706L11.0351 3.5625ZM1.1875 1.1875H8.3125V3.5625C8.3125 4.21741 8.84509 4.75 9.5 4.75H11.875V16.625H1.1875V1.1875Z" fill="#6F3E98"/>
<path d="M2.96867 4.15625H6.2343C6.39177 4.15625 6.54279 4.09369 6.65414 3.98234C6.76549 3.87099 6.82805 3.71997 6.82805 3.5625C6.82805 3.40503 6.76549 3.25401 6.65414 3.14266C6.54279 3.03131 6.39177 2.96875 6.2343 2.96875H2.96867C2.8112 2.96875 2.66018 3.03131 2.54883 3.14266C2.43748 3.25401 2.37492 3.40503 2.37492 3.5625C2.37492 3.71997 2.43748 3.87099 2.54883 3.98234C2.66018 4.09369 2.8112 4.15625 2.96867 4.15625ZM10.0937 5.9375H2.96867C2.8112 5.9375 2.66018 6.00006 2.54883 6.11141C2.43748 6.22276 2.37492 6.37378 2.37492 6.53125C2.37492 6.68872 2.43748 6.83975 2.54883 6.95109C2.66018 7.06244 2.8112 7.125 2.96867 7.125H10.0937C10.2511 7.125 10.4022 7.06244 10.5135 6.95109C10.6249 6.83975 10.6874 6.68872 10.6874 6.53125C10.6874 6.37378 10.6249 6.22276 10.5135 6.11141C10.4022 6.00006 10.2511 5.9375 10.0937 5.9375ZM10.0937 8.3125H2.96867C2.8112 8.3125 2.66018 8.37506 2.54883 8.48641C2.43748 8.59776 2.37492 8.74878 2.37492 8.90625C2.37492 9.06372 2.43748 9.21475 2.54883 9.3261C2.66018 9.43745 2.8112 9.5 2.96867 9.5H10.0937C10.2511 9.5 10.4022 9.43745 10.5135 9.3261C10.6249 9.21475 10.6874 9.06372 10.6874 8.90625C10.6874 8.74878 10.6249 8.59776 10.5135 8.48641C10.4022 8.37506 10.2511 8.3125 10.0937 8.3125ZM10.0937 10.6875H2.96867C2.8112 10.6875 2.66018 10.7501 2.54883 10.8614C2.43748 10.9728 2.37492 11.1238 2.37492 11.2813C2.37492 11.4387 2.43748 11.5897 2.54883 11.7011C2.66018 11.8124 2.8112 11.875 2.96867 11.875H10.0937C10.2511 11.875 10.4022 11.8124 10.5135 11.7011C10.6249 11.5897 10.6874 11.4387 10.6874 11.2813C10.6874 11.1238 10.6249 10.9728 10.5135 10.8614C10.4022 10.7501 10.2511 10.6875 10.0937 10.6875ZM10.0937 13.0625H2.96867C2.8112 13.0625 2.66018 13.1251 2.54883 13.2364C2.43748 13.3478 2.37492 13.4988 2.37492 13.6563C2.37492 13.8137 2.43748 13.9647 2.54883 14.0761C2.66018 14.1874 2.8112 14.25 2.96867 14.25H10.0937C10.2511 14.25 10.4022 14.1874 10.5135 14.0761C10.6249 13.9647 10.6874 13.8137 10.6874 13.6563C10.6874 13.4988 10.6249 13.3478 10.5135 13.2364C10.4022 13.1251 10.2511 13.0625 10.0937 13.0625Z" fill="#6F3E98"/>
</svg>
